hw8
…
Rows: 8760 Columns: 14

── Column specification ────────────────────────────────────────────────────────
Delimiter: ","
chr  (4): Date, Seasons, Holiday, Functioning Day
dbl (10): Rented Bike Count, Hour, Temperature(°C), Humidity(%), Wind speed ...

ℹ Use `spec()` to retrieve the full column specification for this data.
ℹ Specify the column types or set `show_col_types = FALSE` to quiet this message.

data1

# A tibble: 8,760 × 14
   Date      `Rented Bike Count`  Hour `Temperature(°C)` `Humidity(%)`
   <chr>                   <dbl> <dbl>             <dbl>         <dbl>
 1 1/12/2017                 254     0              -5.2            37
 2 1/12/2017                 204     1              -5.5            38
 3 1/12/2017                 173     2              -6              39
 4 1/12/2017                 107     3              -6.2            40
 5 1/12/2017                  78     4              -6              36
 6 1/12/2017                 100     5              -6.4            37
 7 1/12/2017                 181     6              -6.6            35
 8 1/12/2017                 460     7              -7.4            38
 9 1/12/2017                 930     8              -7.6            37
10 1/12/2017                 490     9              -6.5            27
# ℹ 8,750 more rows
# ℹ 9 more variables: `Wind speed (m/s)` <dbl>, `Visibility (10m)` <dbl>,
#   `Dew point temperature(°C)` <dbl>, `Solar Radiation (MJ/m2)` <dbl>,
#   `Rainfall(mm)` <dbl>, `Snowfall (cm)` <dbl>, Seasons <chr>, Holiday <chr>,
#   `Functioning Day` <chr>
…
 chr [1:8760] "1/12/2017" "1/12/2017" "1/12/2017" "1/12/2017" "1/12/2017" ...

# convert the Date column into an actual date. 5304 failed to convert. Use the dmy() to convert. 
data1$Parsed_Date <- mdy(data1$Date)

Warning: 5304 failed to parse.

data1$Parsed_Date[is.na(data1$Parsed_Date)] <- dmy(data1$Date[is.na(data1$Parsed_Date)])
# check results and the new column Parsed_Date and it got all actual dates.
head(data1, 350)

# A tibble: 350 × 15
   Date      `Rented Bike Count`  Hour `Temperature(°C)` `Humidity(%)`
   <chr>                   <dbl> <dbl>             <dbl>         <dbl>
 1 1/12/2017                 254     0              -5.2            37
 2 1/12/2017                 204     1              -5.5            38
 3 1/12/2017                 173     2              -6              39
 4 1/12/2017                 107     3              -6.2            40
 5 1/12/2017                  78     4              -6              36
 6 1/12/2017                 100     5              -6.4            37
 7 1/12/2017                 181     6              -6.6            35
 8 1/12/2017                 460     7              -7.4            38
 9 1/12/2017                 930     8              -7.6            37
10 1/12/2017                 490     9              -6.5            27
# ℹ 340 more rows
# ℹ 10 more variables: `Wind speed (m/s)` <dbl>, `Visibility (10m)` <dbl>,
#   `Dew point temperature(°C)` <dbl>, `Solar Radiation (MJ/m2)` <dbl>,
#   `Rainfall(mm)` <dbl>, `Snowfall (cm)` <dbl>, Seasons <chr>, Holiday <chr>,
#   `Functioning Day` <chr>, Parsed_Date <date>
…
    # Mean of weather-related variables
    mean_temperature = mean(temperature_c),
    mean_humidity = mean(humidity_percent),
    mean_wind_speed = mean(wind_speed_m_s),
    mean_visibility = mean(visibility_10m),
    mean_dew_point_temperature = mean(dew_point_temperature_c)
  )

`summarise()` has grouped output by 'parsed_date', 'seasons'. You can override
using the `.groups` argument.

# View the summarized dataset
head(summarized_data1, 300)

# A tibble: 300 × 11
# Groups:   parsed_date, seasons [300]
   parsed_date seasons holiday    total_bike_count total_rainfall total_snowfall
   <date>      <fct>   <fct>                 <dbl>          <dbl>          <dbl>
 1 2017-01-12  Winter  No Holiday             9539            0              0  
 2 2017-02-12  Winter  No Holiday             8523            0              0  
 3 2017-03-12  Winter  No Holiday             7222            4              0  
 4 2017-04-12  Winter  No Holiday             8729            0.1            0  
 5 2017-05-12  Winter  No Holiday             8307            0              0  
 6 2017-06-12  Winter  No Holiday             6669            1.3            8.6
 7 2017-07-12  Winter  No Holiday             8549            0             10.4
 8 2017-08-12  Winter  No Holiday             8032            0              0  
 9 2017-09-12  Winter  No Holiday             7233            0              0  
10 2017-10-12  Winter  No Holiday             3453            4.1           32.5
# ℹ 290 more rows
# ℹ 5 more variables: mean_temperature <dbl>, mean_humidity <dbl>,
#   mean_wind_speed <dbl>, mean_visibility <dbl>,
#   mean_dew_point_temperature <dbl>
…
